[
{
"name": "Bhutan",
"dial_code": "+975",
"code": "BT"
},
{
"name": "Iraq",
"dial_code": "+964",
"code": "IQ"
},
{
"name": "Qatar",
"dial_code": "+974",
"code": "QA"
},
{
"name": "Kuwait",
"dial_code": "+965",
"code": "KW"
},
{
"name": "Oman",
"dial_code": "+968",
"code": "OM"
},
{
"name": "Saint Barthelemy",
"dial_code": "+590",
"code": "BL"
},
{
"name": "United Arab Emirates",
"dial_code": "+971",
"code": "AE"
}
]
